<?xml version="1.0" encoding="UTF-8" standalone="no"?>
<!DOCTYPE svg PUBLIC "-//W3C//DTD SVG 1.1//EN"
 "http://www.w3.org/Graphics/SVG/1.1/DTD/svg11.dtd">
<!-- Generated by graphviz version 2.40.1 (20161225.0304)
 -->
<!-- Title: snakemake_dag Pages: 1 -->
<svg width="180pt" height="764pt"
 viewBox="0.00 0.00 179.50 764.00" xmlns="http://www.w3.org/2000/svg" xmlns:xlink="http://www.w3.org/1999/xlink">
<g id="graph0" class="graph" transform="scale(1 1) rotate(0) translate(4 760)">
<title>snakemake_dag</title>
<polygon fill="#ffffff" stroke="transparent" points="-4,4 -4,-760 175.5,-760 175.5,4 -4,4"/>
<!-- 0 -->
<g id="node1" class="node">
<title>0</title>
<path fill="none" stroke="#d6d856" stroke-width="2" d="M102,-36C102,-36 72,-36 72,-36 66,-36 60,-30 60,-24 60,-24 60,-12 60,-12 60,-6 66,0 72,0 72,0 102,0 102,0 108,0 114,-6 114,-12 114,-12 114,-24 114,-24 114,-30 108,-36 102,-36"/>
<text text-anchor="middle" x="87" y="-15.5" font-family="sans" font-size="10.00" fill="#000000">all</text>
</g>
<!-- 1 -->
<g id="node2" class="node">
<title>1</title>
<path fill="none" stroke="#56d8d8" stroke-width="2" d="M118.5,-108C118.5,-108 55.5,-108 55.5,-108 49.5,-108 43.5,-102 43.5,-96 43.5,-96 43.5,-84 43.5,-84 43.5,-78 49.5,-72 55.5,-72 55.5,-72 118.5,-72 118.5,-72 124.5,-72 130.5,-78 130.5,-84 130.5,-84 130.5,-96 130.5,-96 130.5,-102 124.5,-108 118.5,-108"/>
<text text-anchor="middle" x="87" y="-87.5" font-family="sans" font-size="10.00" fill="#000000">create_barplot</text>
</g>
<!-- 1&#45;&gt;0 -->
<g id="edge1" class="edge">
<title>1&#45;&gt;0</title>
<path fill="none" stroke="#c0c0c0" stroke-width="2" d="M87,-71.8314C87,-64.131 87,-54.9743 87,-46.4166"/>
<polygon fill="#c0c0c0" stroke="#c0c0c0" stroke-width="2" points="90.5001,-46.4132 87,-36.4133 83.5001,-46.4133 90.5001,-46.4132"/>
</g>
<!-- 2 -->
<g id="node3" class="node">
<title>2</title>
<path fill="none" stroke="#80d856" stroke-width="2" d="M126,-180C126,-180 48,-180 48,-180 42,-180 36,-174 36,-168 36,-168 36,-156 36,-156 36,-150 42,-144 48,-144 48,-144 126,-144 126,-144 132,-144 138,-150 138,-156 138,-156 138,-168 138,-168 138,-174 132,-180 126,-180"/>
<text text-anchor="middle" x="87" y="-159.5" font-family="sans" font-size="10.00" fill="#000000">get_specie_name</text>
</g>
<!-- 2&#45;&gt;1 -->
<g id="edge2" class="edge">
<title>2&#45;&gt;1</title>
<path fill="none" stroke="#c0c0c0" stroke-width="2" d="M87,-143.8314C87,-136.131 87,-126.9743 87,-118.4166"/>
<polygon fill="#c0c0c0" stroke="#c0c0c0" stroke-width="2" points="90.5001,-118.4132 87,-108.4133 83.5001,-118.4133 90.5001,-118.4132"/>
</g>
<!-- 3 -->
<g id="node4" class="node">
<title>3</title>
<path fill="none" stroke="#d8ac56" stroke-width="2" d="M102,-252C102,-252 72,-252 72,-252 66,-252 60,-246 60,-240 60,-240 60,-228 60,-228 60,-222 66,-216 72,-216 72,-216 102,-216 102,-216 108,-216 114,-222 114,-228 114,-228 114,-240 114,-240 114,-246 108,-252 102,-252"/>
<text text-anchor="middle" x="87" y="-231.5" font-family="sans" font-size="10.00" fill="#000000">blast</text>
</g>
<!-- 3&#45;&gt;2 -->
<g id="edge3" class="edge">
<title>3&#45;&gt;2</title>
<path fill="none" stroke="#c0c0c0" stroke-width="2" d="M87,-215.8314C87,-208.131 87,-198.9743 87,-190.4166"/>
<polygon fill="#c0c0c0" stroke="#c0c0c0" stroke-width="2" points="90.5001,-190.4132 87,-180.4133 83.5001,-190.4133 90.5001,-190.4132"/>
</g>
<!-- 4 -->
<g id="node5" class="node">
<title>4</title>
<path fill="none" stroke="#d88556" stroke-width="2" d="M109,-324C109,-324 65,-324 65,-324 59,-324 53,-318 53,-312 53,-312 53,-300 53,-300 53,-294 59,-288 65,-288 65,-288 109,-288 109,-288 115,-288 121,-294 121,-300 121,-300 121,-312 121,-312 121,-318 115,-324 109,-324"/>
<text text-anchor="middle" x="87" y="-303.5" font-family="sans" font-size="10.00" fill="#000000">assembler</text>
</g>
<!-- 4&#45;&gt;3 -->
<g id="edge4" class="edge">
<title>4&#45;&gt;3</title>
<path fill="none" stroke="#c0c0c0" stroke-width="2" d="M87,-287.8314C87,-280.131 87,-270.9743 87,-262.4166"/>
<polygon fill="#c0c0c0" stroke="#c0c0c0" stroke-width="2" points="90.5001,-262.4132 87,-252.4133 83.5001,-262.4133 90.5001,-262.4132"/>
</g>
<!-- 5 -->
<g id="node6" class="node">
<title>5</title>
<path fill="none" stroke="#59d856" stroke-width="2" stroke-dasharray="5,2" d="M116.5,-396C116.5,-396 57.5,-396 57.5,-396 51.5,-396 45.5,-390 45.5,-384 45.5,-384 45.5,-372 45.5,-372 45.5,-366 51.5,-360 57.5,-360 57.5,-360 116.5,-360 116.5,-360 122.5,-360 128.5,-366 128.5,-372 128.5,-372 128.5,-384 128.5,-384 128.5,-390 122.5,-396 116.5,-396"/>
<text text-anchor="middle" x="87" y="-375.5" font-family="sans" font-size="10.00" fill="#000000">bam_to_fastq</text>
</g>
<!-- 5&#45;&gt;4 -->
<g id="edge5" class="edge">
<title>5&#45;&gt;4</title>
<path fill="none" stroke="#c0c0c0" stroke-width="2" d="M87,-359.8314C87,-352.131 87,-342.9743 87,-334.4166"/>
<polygon fill="#c0c0c0" stroke="#c0c0c0" stroke-width="2" points="90.5001,-334.4132 87,-324.4133 83.5001,-334.4133 90.5001,-334.4132"/>
</g>
<!-- 6 -->
<g id="node7" class="node">
<title>6</title>
<path fill="none" stroke="#56d882" stroke-width="2" stroke-dasharray="5,2" d="M109,-468C109,-468 65,-468 65,-468 59,-468 53,-462 53,-456 53,-456 53,-444 53,-444 53,-438 59,-432 65,-432 65,-432 109,-432 109,-432 115,-432 121,-438 121,-444 121,-444 121,-456 121,-456 121,-462 115,-468 109,-468"/>
<text text-anchor="middle" x="87" y="-447.5" font-family="sans" font-size="10.00" fill="#000000">sort_reads</text>
</g>
<!-- 6&#45;&gt;5 -->
<g id="edge6" class="edge">
<title>6&#45;&gt;5</title>
<path fill="none" stroke="#c0c0c0" stroke-width="2" d="M87,-431.8314C87,-424.131 87,-414.9743 87,-406.4166"/>
<polygon fill="#c0c0c0" stroke="#c0c0c0" stroke-width="2" points="90.5001,-406.4132 87,-396.4133 83.5001,-406.4133 90.5001,-406.4132"/>
</g>
<!-- 7 -->
<g id="node8" class="node">
<title>7</title>
<path fill="none" stroke="#56a9d8" stroke-width="2" stroke-dasharray="5,2" d="M139.5,-540C139.5,-540 34.5,-540 34.5,-540 28.5,-540 22.5,-534 22.5,-528 22.5,-528 22.5,-516 22.5,-516 22.5,-510 28.5,-504 34.5,-504 34.5,-504 139.5,-504 139.5,-504 145.5,-504 151.5,-510 151.5,-516 151.5,-516 151.5,-528 151.5,-528 151.5,-534 145.5,-540 139.5,-540"/>
<text text-anchor="middle" x="87" y="-519.5" font-family="sans" font-size="10.00" fill="#000000">save_unmapped_reads</text>
</g>
<!-- 7&#45;&gt;6 -->
<g id="edge7" class="edge">
<title>7&#45;&gt;6</title>
<path fill="none" stroke="#c0c0c0" stroke-width="2" d="M87,-503.8314C87,-496.131 87,-486.9743 87,-478.4166"/>
<polygon fill="#c0c0c0" stroke="#c0c0c0" stroke-width="2" points="90.5001,-478.4132 87,-468.4133 83.5001,-478.4133 90.5001,-478.4132"/>
</g>
<!-- 8 -->
<g id="node9" class="node">
<title>8</title>
<path fill="none" stroke="#5682d8" stroke-width="2" stroke-dasharray="5,2" d="M112,-612C112,-612 62,-612 62,-612 56,-612 50,-606 50,-600 50,-600 50,-588 50,-588 50,-582 56,-576 62,-576 62,-576 112,-576 112,-576 118,-576 124,-582 124,-588 124,-588 124,-600 124,-600 124,-606 118,-612 112,-612"/>
<text text-anchor="middle" x="87" y="-591.5" font-family="sans" font-size="10.00" fill="#000000">create_bam</text>
</g>
<!-- 8&#45;&gt;7 -->
<g id="edge8" class="edge">
<title>8&#45;&gt;7</title>
<path fill="none" stroke="#c0c0c0" stroke-width="2" d="M87,-575.8314C87,-568.131 87,-558.9743 87,-550.4166"/>
<polygon fill="#c0c0c0" stroke="#c0c0c0" stroke-width="2" points="90.5001,-550.4132 87,-540.4133 83.5001,-550.4133 90.5001,-550.4132"/>
</g>
<!-- 9 -->
<g id="node10" class="node">
<title>9</title>
<path fill="none" stroke="#56d8a9" stroke-width="2" stroke-dasharray="5,2" d="M103,-684C103,-684 71,-684 71,-684 65,-684 59,-678 59,-672 59,-672 59,-660 59,-660 59,-654 65,-648 71,-648 71,-648 103,-648 103,-648 109,-648 115,-654 115,-660 115,-660 115,-672 115,-672 115,-678 109,-684 103,-684"/>
<text text-anchor="middle" x="87" y="-663.5" font-family="sans" font-size="10.00" fill="#000000">bowtie2</text>
</g>
<!-- 9&#45;&gt;8 -->
<g id="edge9" class="edge">
<title>9&#45;&gt;8</title>
<path fill="none" stroke="#c0c0c0" stroke-width="2" d="M87,-647.8314C87,-640.131 87,-630.9743 87,-622.4166"/>
<polygon fill="#c0c0c0" stroke="#c0c0c0" stroke-width="2" points="90.5001,-622.4132 87,-612.4133 83.5001,-622.4133 90.5001,-622.4132"/>
</g>
<!-- 10 -->
<g id="node11" class="node">
<title>10</title>
<path fill="none" stroke="#d85656" stroke-width="2" stroke-dasharray="5,2" d="M68,-756C68,-756 12,-756 12,-756 6,-756 0,-750 0,-744 0,-744 0,-732 0,-732 0,-726 6,-720 12,-720 12,-720 68,-720 68,-720 74,-720 80,-726 80,-732 80,-732 80,-744 80,-744 80,-750 74,-756 68,-756"/>
<text text-anchor="middle" x="40" y="-735.5" font-family="sans" font-size="10.00" fill="#000000">trimmomatic</text>
</g>
<!-- 10&#45;&gt;9 -->
<g id="edge10" class="edge">
<title>10&#45;&gt;9</title>
<path fill="none" stroke="#c0c0c0" stroke-width="2" d="M51.8601,-719.8314C57.1629,-711.7079 63.5237,-701.9637 69.3673,-693.0118"/>
<polygon fill="#c0c0c0" stroke="#c0c0c0" stroke-width="2" points="72.4448,-694.7003 74.9802,-684.4133 66.5831,-690.8739 72.4448,-694.7003"/>
</g>
<!-- 11 -->
<g id="node12" class="node">
<title>11</title>
<path fill="none" stroke="#afd856" stroke-width="2" stroke-dasharray="5,2" d="M159.5,-756C159.5,-756 110.5,-756 110.5,-756 104.5,-756 98.5,-750 98.5,-744 98.5,-744 98.5,-732 98.5,-732 98.5,-726 104.5,-720 110.5,-720 110.5,-720 159.5,-720 159.5,-720 165.5,-720 171.5,-726 171.5,-732 171.5,-732 171.5,-744 171.5,-744 171.5,-750 165.5,-756 159.5,-756"/>
<text text-anchor="middle" x="135" y="-735.5" font-family="sans" font-size="10.00" fill="#000000">build_index</text>
</g>
<!-- 11&#45;&gt;9 -->
<g id="edge11" class="edge">
<title>11&#45;&gt;9</title>
<path fill="none" stroke="#c0c0c0" stroke-width="2" d="M122.8876,-719.8314C117.4719,-711.7079 110.9758,-701.9637 105.0079,-693.0118"/>
<polygon fill="#c0c0c0" stroke="#c0c0c0" stroke-width="2" points="107.7347,-690.7923 99.2755,-684.4133 101.9104,-694.6753 107.7347,-690.7923"/>
</g>
</g>
</svg>
